{
    "Vertex":"shader/entityVS.glsl",
    "Geometry":"shader/entityGS.glsl",
    "Fragment":"shader/entityFS.glsl",

    "FragDataLocation":[
        {
            "Index":0,
            "Name":"outColor"
        }
    ],

    "Attribute":[
        "position",
        "anchor",
        "size",
        "angle",
        "zDepth",
        "texPos",
        "texTile"
    ],

    "Uniform":[
        "projection",
        "view",
        "tint",
        "tex",
        "texSize"
    ]
}
